<?xml version="1.0" encoding="UTF-8" standalone="no"?>
<svg width="290px" height="63px" viewBox="0 0 290 63" version="1.1" xmlns="http://www.w3.org/2000/svg" xmlns:xlink="http://www.w3.org/1999/xlink" xmlns:sketch="http://www.bohemiancoding.com/sketch/ns">
    <!-- Generator: Sketch 3.2.2 (9983) - http://www.bohemiancoding.com/sketch -->
    <title>Group</title>
    <desc>Created with Sketch.</desc>
    <defs></defs>
    <g id="index-PAGE" stroke="none" stroke-width="1" fill="none" fill-rule="evenodd" sketch:type="MSPage">
        <g id="faq.html" sketch:type="MSArtboardGroup" transform="translate(-16.000000, -42.000000)">
            <g id="Group" sketch:type="MSLayerGroup" transform="translate(16.000000, 42.000000)">
                <g id="h1-title">
                    <text id="よくあるご質問" sketch:type="MSTextLayer" font-family="Hiragino Kaku Gothic ProN" font-size="17.3333333" font-weight="526" sketch:alignment="right" fill="#00A7E0">
                        <tspan x="168.666667" y="33">よくあるご質問</tspan>
                    </text>
                    <ellipse id="Oval-9" fill="#00A7E0" sketch:type="MSShapeGroup" cx="31.5" cy="31.5" rx="31.5" ry="31.5"></ellipse>
                    <path d="M25.5,43 L289.5,43" id="Path-191" stroke="#00A7E0" sketch:type="MSShapeGroup"></path>
                </g>
                <text id="Q&amp;A" sketch:type="MSTextLayer" font-family="Hiragino Kaku Gothic ProN" font-size="17.3333333" font-weight="526" fill="#FFFFFF">
                    <tspan x="8" y="37">Q&amp;A</tspan>
                </text>
            </g>
        </g>
    </g>
</svg>