<?xml version="1.0" encoding="UTF-8" standalone="no"?>
<svg width="290px" height="64px" viewBox="0 0 290 64" version="1.1" xmlns="http://www.w3.org/2000/svg" xmlns:xlink="http://www.w3.org/1999/xlink" xmlns:sketch="http://www.bohemiancoding.com/sketch/ns">
    <!-- Generator: Sketch 3.2.2 (9983) - http://www.bohemiancoding.com/sketch -->
    <title>h1 title + Imported Layers</title>
    <desc>Created with Sketch.</desc>
    <defs></defs>
    <g id="index-PAGE" stroke="none" stroke-width="1" fill="none" fill-rule="evenodd" sketch:type="MSPage">
        <g id="記念写真・お宮参り用レンタル産着" sketch:type="MSArtboardGroup" transform="translate(-15.000000, -47.000000)">
            <g id="h1-title-+-Imported-Layers" sketch:type="MSLayerGroup" transform="translate(15.000000, 47.000000)">
                <g id="h1-title">
                    <text id="お宮参り用レンタル産着サンプル" sketch:type="MSTextLayer" font-family="Hiragino Kaku Gothic ProN" font-size="17.3333333" font-weight="526" sketch:alignment="right" fill="#00A7E0">
                        <tspan x="100.893333" y="37">お宮参り用レンタル産着</tspan>
                        <tspan x="221.533333" y="63">サンプル</tspan>
                    </text>
                    <ellipse id="Oval-9" fill="#00A7E0" sketch:type="MSShapeGroup" cx="31.5" cy="31.5" rx="31.5" ry="31.5"></ellipse>
                    <path d="M25.5,43 L289.5,43" id="Path-191" stroke="#00A7E0" sketch:type="MSShapeGroup"></path>
                </g>
                <path d="M32,44.7913043 L27.4210526,44.7913043 L20.3947368,42.0521739 L21.5,38.6086957 L20.7368421,37.773913 L22.7368421,34.773913 L20.5263158,34.773913 L20,21 L44,21 L43.4736842,34.773913 L41.2631579,34.773913 L43.2631579,37.773913 L42.5,38.6086957 L43.6052632,42.0521739 L36.5789474,44.7913043 L32,44.7913043" id="Imported-Layers" fill="#FFFFFF" sketch:type="MSShapeGroup"></path>
            </g>
        </g>
    </g>
</svg>