<?xml version="1.0" encoding="UTF-8" standalone="no"?>
<svg width="289px" height="63px" viewBox="0 0 289 63" version="1.1" xmlns="http://www.w3.org/2000/svg" xmlns:xlink="http://www.w3.org/1999/xlink" xmlns:sketch="http://www.bohemiancoding.com/sketch/ns">
    <!-- Generator: Sketch 3.2.2 (9983) - http://www.bohemiancoding.com/sketch -->
    <title>h1-title</title>
    <desc>Created with Sketch.</desc>
    <defs></defs>
    <g id="index-PAGE" stroke="none" stroke-width="1" fill="none" fill-rule="evenodd" sketch:type="MSPage">
        <g id="価格表" sketch:type="MSArtboardGroup" transform="translate(-16.000000, -52.000000)">
            <g id="h1-title-+-以下の角丸のボタンを押して知りたい料金を" sketch:type="MSLayerGroup" transform="translate(15.000000, 52.000000)">
                <g id="h1-title" transform="translate(1.000000, 0.000000)">
                    <circle id="Oval-7" fill="#02A5DA" sketch:type="MSShapeGroup" cx="31.5" cy="31.5" r="31.5"></circle>
                    <text id="料金一覧" sketch:type="MSTextLayer" font-family="Hiragino Kaku Gothic ProN" font-size="18" font-weight="526" fill="#00A7E0">
                        <tspan x="217" y="38">料金一覧</tspan>
                    </text>
                    <g id="fa-cny-(alias)" transform="translate(23.500000, 21.442000)" fill="#FFFFFF" sketch:type="MSShapeGroup">
                        <path d="M4.84165561,9.05077594 L1.75091849,9.05077594 C1.62016098,9.05077594 1.51717498,9.10107418 1.41303184,9.17596266 C1.33550305,9.27655914 1.28343148,9.37715561 1.28343148,9.50234234 L1.28343148,10.957638 C1.28343148,11.0828247 1.33550305,11.2091292 1.41303184,11.2840177 C1.51717498,11.3589062 1.62016098,11.4092044 1.75091849,11.4092044 L5.90622999,11.4092044 L5.90622999,12.6130089 L1.75091849,12.6130089 C1.62016098,12.6130089 1.51717498,12.6633071 1.41303184,12.7393133 C1.33550305,12.8399098 1.28343148,12.9393886 1.28343148,13.065693 L1.28343148,14.4952807 C1.28343148,14.6204674 1.33550305,14.7456542 1.41303184,14.8216604 C1.51717498,14.8965489 1.62016098,14.9468471 1.75091849,14.9468471 L5.90622999,14.9468471 L5.90622999,19.5631076 C5.90622999,19.6882943 5.95830156,19.8145987 6.03583035,19.8894872 C6.13997349,19.9643757 6.24411664,20.014674 6.373717,20.014674 L8.86736676,20.014674 C8.99696712,20.014674 9.10111026,19.9643757 9.20525341,19.8894872 C9.28278219,19.7888908 9.33485376,19.6882943 9.33485376,19.5631076 L9.33485376,14.9468471 L13.5167796,14.9468471 C13.64638,14.9468471 13.7505231,14.8965489 13.8535091,14.8216604 C13.9321951,14.7456542 13.9842666,14.6204674 13.9842666,14.4952807 L13.9842666,13.065693 C13.9842666,12.9393886 13.9321951,12.8399098 13.8535091,12.7393133 C13.7505231,12.6633071 13.64638,12.6130089 13.5167796,12.6130089 L9.33485376,12.6130089 L9.33485376,11.4092044 L13.5167796,11.4092044 C13.64638,11.4092044 13.7505231,11.3589062 13.8535091,11.2840177 C13.9321951,11.2091292 13.9842666,11.0828247 13.9842666,10.957638 L13.9842666,9.50234234 C13.9842666,9.37715561 13.9321951,9.27655914 13.8535091,9.17596266 C13.7505231,9.10107418 13.64638,9.05077594 13.5167796,9.05077594 L10.4260425,9.05077594 L14.9446979,0.947171021 C15.0222267,0.797394047 15.0222267,0.646499335 14.9192407,0.521312611 C14.8405547,0.370417899 14.7109544,0.295529412 14.5292824,0.295529412 L11.776432,0.295529412 C11.5681457,0.295529412 11.4385453,0.370417899 11.3610165,0.54590286 L8.58155168,6.44197402 C8.52948011,6.59286874 8.39987975,6.86783243 8.19159346,7.29480858 C7.98446431,7.69607674 7.85370681,8.02245642 7.75072081,8.24823962 C7.3862198,7.41999531 7.12701908,6.84324218 6.94534715,6.49227226 L3.82799566,0.54590286 C3.72500967,0.370417899 3.59425216,0.295529412 3.41258023,0.295529412 L0.607658179,0.295529412 C0.425986248,0.295529412 0.296385889,0.370417899 0.192242743,0.521312611 C0.114713957,0.671089584 0.114713957,0.821984297 0.192242743,0.947171021 L4.84165561,9.05077594" id="Fill-119"></path>
                    </g>
                    <path d="M31.6445312,45.140625 L288.546696,45.140625" id="Path-64" stroke="#00A7E0" sketch:type="MSShapeGroup"></path>
                </g>
            </g>
        </g>
    </g>
</svg>