<?xml version="1.0" encoding="UTF-8" standalone="no"?>
<svg width="138px" height="96px" viewBox="0 0 138 96" version="1.1" xmlns="http://www.w3.org/2000/svg" xmlns:xlink="http://www.w3.org/1999/xlink" xmlns:sketch="http://www.bohemiancoding.com/sketch/ns">
    <!-- Generator: Sketch 3.2.2 (9983) - http://www.bohemiancoding.com/sketch -->
    <title>Group</title>
    <desc>Created with Sketch.</desc>
    <defs></defs>
    <g id="index-PAGE" stroke="none" stroke-width="1" fill="none" fill-rule="evenodd" sketch:type="MSPage">
        <g id="価格表" sketch:type="MSArtboardGroup" transform="translate(-16.000000, -251.000000)">
            <g id="記念写真ボタン群" sketch:type="MSLayerGroup" transform="translate(16.000000, 161.000000)">
                <g id="Group" transform="translate(0.000000, 90.000000)">
                    <rect id="Rectangle-3" fill="#FC9632" sketch:type="MSShapeGroup" x="0" y="0" width="138" height="96" rx="8"></rect>
                    <g id="焼き増し-+-記念写真" transform="translate(48.000000, 4.000000)" font-size="11" font-family="Hiragino Kaku Gothic ProN" fill="#FFFFFF" sketch:type="MSTextLayer" font-weight="526">
                        <text id="記念写真">
                            <tspan x="0" y="10">記念写真</tspan>
                        </text>
                    </g>
                    <text id="着付け" sketch:type="MSTextLayer" font-family="Hiragino Kaku Gothic ProN" font-size="18" font-weight="526" fill="#FFFFFF">
                        <tspan x="47.7050781" y="36">着付け</tspan>
                        <tspan x="47.7050781" y="63">ヘアセット</tspan>
                        <tspan x="47.7050781" y="90">メイク</tspan>
                    </text>
                    <g id="fa-female" transform="translate(15.000000, 8.000000)" fill="#FFFFFF" sketch:type="MSShapeGroup">
                        <path d="M1.333,13.828 C1.558,14.074 1.85,14.187 2.186,14.187 C2.613,14.187 2.927,14.007 3.174,13.648 L6.024,9.361 L6.586,9.361 L6.586,11.022 L3.488,16.162 C3.421,16.296 3.376,16.431 3.376,16.588 C3.376,16.813 3.466,16.992 3.623,17.149 C3.78,17.307 3.959,17.396 4.184,17.396 L6.586,17.396 L6.586,20.786 C6.586,21.167 6.72,21.504 6.99,21.773 C7.281,22.065 7.596,22.2 7.977,22.2 L9.997,22.2 C10.379,22.2 10.693,22.065 10.985,21.773 C11.254,21.504 11.389,21.167 11.389,20.786 L11.389,17.396 L13.791,17.396 C14.015,17.396 14.195,17.307 14.352,17.149 C14.509,16.992 14.599,16.813 14.599,16.588 C14.599,16.431 14.554,16.296 14.486,16.162 L11.389,11.022 L11.389,9.361 L11.95,9.361 L14.801,13.648 C15.048,14.007 15.362,14.187 15.788,14.187 C16.125,14.187 16.417,14.074 16.641,13.828 C16.888,13.603 17,13.311 17,12.974 C17,12.728 16.933,12.503 16.798,12.324 L13.589,7.498 C12.983,6.6 12.242,6.173 11.389,6.173 L6.586,6.173 C5.733,6.173 4.992,6.6 4.386,7.498 L1.176,12.324 C1.041,12.503 0.974,12.728 0.974,12.974 C0.974,13.311 1.086,13.603 1.333,13.828 L1.333,13.828 Z M8.987,5.769 C9.773,5.769 10.424,5.5 10.962,4.939 C11.524,4.4 11.793,3.749 11.793,2.964 C11.793,2.178 11.524,1.527 10.962,0.989 C10.424,0.427 9.773,0.158 8.987,0.158 C8.202,0.158 7.551,0.427 7.012,0.989 C6.451,1.527 6.182,2.178 6.182,2.964 C6.182,3.749 6.451,4.4 7.012,4.939 C7.551,5.5 8.202,5.769 8.987,5.769 L8.987,5.769 Z" id="Fill-86"></path>
                    </g>
                </g>
            </g>
        </g>
    </g>
</svg>