<?xml version="1.0" encoding="UTF-8" standalone="no"?>
<svg width="138px" height="44px" viewBox="0 0 138 44" version="1.1" xmlns="http://www.w3.org/2000/svg" xmlns:xlink="http://www.w3.org/1999/xlink" xmlns:sketch="http://www.bohemiancoding.com/sketch/ns">
    <!-- Generator: Sketch 3.2.2 (9983) - http://www.bohemiancoding.com/sketch -->
    <title>Rectangle 193 + 5歳男児 + fa-male</title>
    <desc>Created with Sketch.</desc>
    <defs></defs>
    <g id="index-PAGE" stroke="none" stroke-width="1" fill="none" fill-rule="evenodd" sketch:type="MSPage">
        <g id="記念写真・七五三用レンタルお祝い着" sketch:type="MSArtboardGroup" transform="translate(-15.000000, -296.000000)">
            <g id="Rectangle-193-+-5歳男児-+-fa-male" sketch:type="MSLayerGroup" transform="translate(15.000000, 296.000000)">
                <rect id="Rectangle-193" fill="#00A7E0" sketch:type="MSShapeGroup" x="0" y="0" width="138" height="44" rx="8"></rect>
                <text id="5歳男児" sketch:type="MSTextLayer" font-family="Hiragino Kaku Gothic ProN" font-size="18" font-weight="526" fill="#FFFFFF">
                    <tspan x="47" y="27">5歳男児</tspan>
                </text>
                <g id="fa-male" transform="translate(19.000000, 10.000000)" fill="#FFFFFF" sketch:type="MSShapeGroup">
                    <path d="M0.9505,15.13 C1.1755,15.377 1.4675,15.489 1.8035,15.489 C2.1185,15.489 2.4095,15.377 2.6345,15.13 C2.8815,14.905 2.9935,14.614 2.9935,14.299 L2.9935,9.9 L3.8015,9.9 L3.8015,21.325 C3.8015,21.706 3.9365,22.021 4.2055,22.312 C4.4975,22.582 4.8335,22.716 5.2155,22.716 C5.5975,22.716 5.9115,22.582 6.2035,22.312 C6.4725,22.021 6.6075,21.706 6.6075,21.302 L6.6075,15.489 L7.4155,15.489 L7.4155,21.302 C7.4155,21.706 7.5505,22.021 7.8195,22.312 C8.1115,22.582 8.4255,22.716 8.8065,22.716 C9.1885,22.716 9.5255,22.582 9.8165,22.312 C10.0865,22.021 10.2215,21.706 10.2215,21.325 L10.2215,9.9 L11.0065,9.9 L11.0065,14.299 C11.0065,14.614 11.1185,14.905 11.3655,15.13 C11.5905,15.377 11.8825,15.489 12.2185,15.489 C12.5325,15.489 12.8245,15.377 13.0495,15.13 C13.2965,14.905 13.4085,14.614 13.4085,14.299 L13.4085,9.092 C13.4085,8.418 13.1835,7.857 12.7125,7.386 C12.2415,6.915 11.6805,6.69 11.0065,6.69 L2.9935,6.69 C2.3205,6.69 1.7595,6.915 1.2875,7.386 C0.8165,7.857 0.5915,8.418 0.5915,9.092 L0.5915,14.299 C0.5915,14.614 0.7045,14.905 0.9505,15.13 L0.9505,15.13 Z M7.0115,6.308 C7.7965,6.308 8.4475,6.039 9.0085,5.478 C9.5475,4.939 9.8165,4.288 9.8165,3.503 C9.8165,2.717 9.5475,2.066 9.0085,1.528 C8.4475,0.966 7.7965,0.697 7.0115,0.697 C6.2255,0.697 5.5745,0.966 5.0135,1.528 C4.4745,2.066 4.2055,2.717 4.2055,3.503 C4.2055,4.288 4.4745,4.939 5.0135,5.478 C5.5745,6.039 6.2255,6.308 7.0115,6.308 L7.0115,6.308 Z" id="Fill-19"></path>
                </g>
            </g>
        </g>
    </g>
</svg>